sha3/filename.vcd
$date
	Fri Apr  8 10:58:08 2016
$end
$version
	Icarus Verilog
$end
$timescale
	1ps
$end
$scope module test_keccak $end
$scope module uut $end
$var wire 1 ! clk $end
$var wire 8 " data_in [7:0] $end
$var wire 1 # end_in $end
$var wire 1 $ ready_out $end
$var wire 1 % reset $end
$var wire 1 & valid_in $end
$var wire 1 ' out_ready $end
$var wire 512 ( out [511:0] $end
$var wire 8 ) data_out [7:0] $end
$var wire 1 * buffer_full $end
$var reg 6 + count_out [5:0] $end
$var reg 1 , end_out $end
$var reg 512 - out_reg [511:0] $end
$var reg 1 . ready_in $end
$var reg 1 / stage $end
$var reg 1 0 valid_out $end
$scope module dut $end
$var wire 1 ! clk $end
$var wire 8 1 in [7:0] $end
$var wire 1 & in_ready $end
$var wire 1 # is_last $end
$var wire 1 % reset $end
$var wire 1 2 padder_out_ready $end
$var wire 576 3 padder_out_1 [575:0] $end
$var wire 576 4 padder_out [575:0] $end
$var wire 512 5 out1 [511:0] $end
$var wire 512 6 out [511:0] $end
$var wire 1 7 f_out_ready $end
$var wire 1600 8 f_out [1599:0] $end
$var wire 1 9 f_ack $end
$var wire 1 * buffer_full $end
$var reg 23 : i [22:0] $end
$var reg 1 ' out_ready $end
$var reg 1 ; state $end
$scope begin L0[0] $end
$scope begin L1[0] $end
$upscope $end
$scope begin L1[1] $end
$upscope $end
$scope begin L1[2] $end
$upscope $end
$scope begin L1[3] $end
$upscope $end
$scope begin L1[4] $end
$upscope $end
$scope begin L1[5] $end
$upscope $end
$scope begin L1[6] $end
$upscope $end
$scope begin L1[7] $end
$upscope $end
$upscope $end
$scope begin L0[1] $end
$scope begin L1[0] $end
$upscope $end
$scope begin L1[1] $end
$upscope $end
$scope begin L1[2] $end
$upscope $end
$scope begin L1[3] $end
$upscope $end
$scope begin L1[4] $end
$upscope $end
$scope begin L1[5] $end
$upscope $end
$scope begin L1[6] $end
$upscope $end
$scope begin L1[7] $end
$upscope $end
$upscope $end
$scope begin L0[2] $end
$scope begin L1[0] $end
$upscope $end
$scope begin L1[1] $end
$upscope $end
$scope begin L1[2] $end
$upscope $end
$scope begin L1[3] $end
$upscope $end
$scope begin L1[4] $end
$upscope $end
$scope begin L1[5] $end
$upscope $end
$scope begin L1[6] $end
$upscope $end
$scope begin L1[7] $end
$upscope $end
$upscope $end
$scope begin L0[3] $end
$scope begin L1[0] $end
$upscope $end
$scope begin L1[1] $end
$upscope $end
$scope begin L1[2] $end
$upscope $end
$scope begin L1[3] $end
$upscope $end
$scope begin L1[4] $end
$upscope $end
$scope begin L1[5] $end
$upscope $end
$scope begin L1[6] $end
$upscope $end
$scope begin L1[7] $end
$upscope $end
$upscope $end
$scope begin L0[4] $end
$scope begin L1[0] $end
$upscope $end
$scope begin L1[1] $end
$upscope $end
$scope begin L1[2] $end
$upscope $end
$scope begin L1[3] $end
$upscope $end
$scope begin L1[4] $end
$upscope $end
$scope begin L1[5] $end
$upscope $end
$scope begin L1[6] $end
$upscope $end
$scope begin L1[7] $end
$upscope $end
$upscope $end
$scope begin L0[5] $end
$scope begin L1[0] $end
$upscope $end
$scope begin L1[1] $end
$upscope $end
$scope begin L1[2] $end
$upscope $end
$scope begin L1[3] $end
$upscope $end
$scope begin L1[4] $end
$upscope $end
$scope begin L1[5] $end
$upscope $end
$scope begin L1[6] $end
$upscope $end
$scope begin L1[7] $end
$upscope $end
$upscope $end
$scope begin L0[6] $end
$scope begin L1[0] $end
$upscope $end
$scope begin L1[1] $end
$upscope $end
$scope begin L1[2] $end
$upscope $end
$scope begin L1[3] $end
$upscope $end
$scope begin L1[4] $end
$upscope $end
$scope begin L1[5] $end
$upscope $end
$scope begin L1[6] $end
$upscope $end
$scope begin L1[7] $end
$upscope $end
$upscope $end
$scope begin L0[7] $end
$scope begin L1[0] $end
$upscope $end
$scope begin L1[1] $end
$upscope $end
$scope begin L1[2] $end
$upscope $end
$scope begin L1[3] $end
$upscope $end
$scope begin L1[4] $end
$upscope $end
$scope begin L1[5] $end
$upscope $end
$scope begin L1[6] $end
$upscope $end
$scope begin L1[7] $end
$upscope $end
$upscope $end
$scope begin L2[0] $end
$scope begin L3[0] $end
$upscope $end
$scope begin L3[1] $end
$upscope $end
$scope begin L3[2] $end
$upscope $end
$scope begin L3[3] $end
$upscope $end
$scope begin L3[4] $end
$upscope $end
$scope begin L3[5] $end
$upscope $end
$scope begin L3[6] $end
$upscope $end
$scope begin L3[7] $end
$upscope $end
$upscope $end
$scope begin L2[1] $end
$scope begin L3[0] $end
$upscope $end
$scope begin L3[1] $end
$upscope $end
$scope begin L3[2] $end
$upscope $end
$scope begin L3[3] $end
$upscope $end
$scope begin L3[4] $end
$upscope $end
$scope begin L3[5] $end
$upscope $end
$scope begin L3[6] $end
$upscope $end
$scope begin L3[7] $end
$upscope $end
$upscope $end
$scope begin L2[2] $end
$scope begin L3[0] $end
$upscope $end
$scope begin L3[1] $end
$upscope $end
$scope begin L3[2] $end
$upscope $end
$scope begin L3[3] $end
$upscope $end
$scope begin L3[4] $end
$upscope $end
$scope begin L3[5] $end
$upscope $end
$scope begin L3[6] $end
$upscope $end
$scope begin L3[7] $end
$upscope $end
$upscope $end
$scope begin L2[3] $end
$scope begin L3[0] $end
$upscope $end
$scope begin L3[1] $end
$upscope $end
$scope begin L3[2] $end
$upscope $end
$scope begin L3[3] $end
$upscope $end
$scope begin L3[4] $end
$upscope $end
$scope begin L3[5] $end
$upscope $end
$scope begin L3[6] $end
$upscope $end
$scope begin L3[7] $end
$upscope $end
$upscope $end
$scope begin L2[4] $end
$scope begin L3[0] $end
$upscope $end
$scope begin L3[1] $end
$upscope $end
$scope begin L3[2] $end
$upscope $end
$scope begin L3[3] $end
$upscope $end
$scope begin L3[4] $end
$upscope $end
$scope begin L3[5] $end
$upscope $end
$scope begin L3[6] $end
$upscope $end
$scope begin L3[7] $end
$upscope $end
$upscope $end
$scope begin L2[5] $end
$scope begin L3[0] $end
$upscope $end
$scope begin L3[1] $end
$upscope $end
$scope begin L3[2] $end
$upscope $end
$scope begin L3[3] $end
$upscope $end
$scope begin L3[4] $end
$upscope $end
$scope begin L3[5] $end
$upscope $end
$scope begin L3[6] $end
$upscope $end
$scope begin L3[7] $end
$upscope $end
$upscope $end
$scope begin L2[6] $end
$scope begin L3[0] $end
$upscope $end
$scope begin L3[1] $end
$upscope $end
$scope begin L3[2] $end
$upscope $end
$scope begin L3[3] $end
$upscope $end
$scope begin L3[4] $end
$upscope $end
$scope begin L3[5] $end
$upscope $end
$scope begin L3[6] $end
$upscope $end
$scope begin L3[7] $end
$upscope $end
$upscope $end
$scope begin L2[7] $end
$scope begin L3[0] $end
$upscope $end
$scope begin L3[1] $end
$upscope $end
$scope begin L3[2] $end
$upscope $end
$scope begin L3[3] $end
$upscope $end
$scope begin L3[4] $end
$upscope $end
$scope begin L3[5] $end
$upscope $end
$scope begin L3[6] $end
$upscope $end
$scope begin L3[7] $end
$upscope $end
$upscope $end
$scope begin L2[8] $end
$scope begin L3[0] $end
$upscope $end
$scope begin L3[1] $end
$upscope $end
$scope begin L3[2] $end
$upscope $end
$scope begin L3[3] $end
$upscope $end
$scope begin L3[4] $end
$upscope $end
$scope begin L3[5] $end
$upscope $end
$scope begin L3[6] $end
$upscope $end
$scope begin L3[7] $end
$upscope $end
$upscope $end
$scope module f_permutation_ $end
$var wire 1 < accept $end
$var wire 1 9 ack $end
$var wire 1 ! clk $end
$var wire 576 = in [575:0] $end
$var wire 1 % reset $end
$var wire 1 > update $end
$var wire 1600 ? round_out [1599:0] $end
$var wire 1600 @ round_in [1599:0] $end
$var wire 64 A rc [63:0] $end
$var wire 1 2 in_ready $end
$var reg 1 B calc $end
$var reg 23 C i [22:0] $end
$var reg 1600 D out [1599:0] $end
$var reg 1 7 out_ready $end
$scope module rconst_ $end
$var wire 24 E i [23:0] $end
$var reg 64 F rc [63:0] $end
$upscope $end
$scope module round_ $end
$var wire 1600 G in [1599:0] $end
$var wire 64 H round_const [63:0] $end
$var wire 1600 I out [1599:0] $end
$upscope $end
$upscope $end
$scope module padder_ $end
$var wire 1 J accept $end
$var wire 1 ! clk $end
$var wire 1 9 f_ack $end
$var wire 8 K in [7:0] $end
$var wire 1 & in_ready $end
$var wire 1 # is_last $end
$var wire 1 2 out_ready $end
$var wire 1 % reset $end
$var wire 1 L update $end
$var wire 1 * buffer_full $end
$var reg 1 M done $end
$var reg 72 N i [71:0] $end
$var reg 576 O out [575:0] $end
$var reg 1 P state $end
$var reg 8 Q v1 [7:0] $end
$upscope $end
$upscope $end
$upscope $end
$upscope $end
$enddefinitions $end
#0
$dumpvars
bx Q
xP
bx O
bx N
xM
xL
bx K
xJ
bx I
bx H
bx G
bx F
bx E
bx D
bx C
xB
bx A
bx @
bx ?
x>
bx =
x<
x;
bx :
x9
bx 8
x7
bx 6
bx 5
bx 4
bx 3
x2
bx 1
x0
x/
x.
bx -
x,
bx +
x*
bx )
bx (
x'
x&
0%
x$
x#
bx "
0!
$end
#10000
1!
#20000
0!
#30000
1!
#40000
0!
#50000
1!
#60000
0!
#70000
1!
#80000
0!
#90000
1!
#100000
0!
1%
1$
#110000
b0 ?
b0 I
0>
b0 @
b0 G
b0 (
b0 6
09
0<
b0 )
b0 5
b0 A
b0 F
b0 H
b1 Q
02
0*
b0 4
b0 =
0,
00
b0 +
0/
b0 -
1.
0'
0;
b0 :
b0 8
b0 D
07
0B
b0 E
b0 C
0M
0P
b0 N
b0 3
b0 O
1!
#120000
0!
#130000
1!
#140000
0!
#150000
1!
#160000
0!
#170000
1!
#180000
0!
#190000
1!
#200000
0!
0%
#205000
0L
0J
b0 Q
0&
0#
b0 "
b0 1
b0 K
1%
#210000
1!
#220000
0!
#225000
1L
1J
b111111 Q
1&
b111111 "
b111111 1
b111111 K
0%
#230000
b11111100000000000000000000000000000000000000000000000000000000 4
b11111100000000000000000000000000000000000000000000000000000000 =
b1 N
b111111 3
b111111 O
1!
#240000
0!
#245000
b110101 Q
b110101 "
b110101 1
b110101 K
#250000
b11010100111111000000000000000000000000000000000000000000000000 4
b11010100111111000000000000000000000000000000000000000000000000 =
b11111100110101 3
b11111100110101 O
b11 N
1!
#260000
0!
#265000
b1010110 Q
b1010110 "
b1010110 1
b1010110 K
#270000
b101011000110101001111110000000000000000000000000000000000000000 4
b101011000110101001111110000000000000000000000000000000000000000 =
b111 N
b1111110011010101010110 3
b1111110011010101010110 O
1!
#280000
0!
#285000
b111100 Q
b111100 "
b111100 1
b111100 K
#290000
b11110001010110001101010011111100000000000000000000000000000000 4
b11110001010110001101010011111100000000000000000000000000000000 =
b111111001101010101011000111100 3
b111111001101010101011000111100 O
b1111 N
1!
#300000
0!
#305000
b1101000 Q
b1101000 "
b1101000 1
b1101000 K
#310000
b110100000111100010101100011010100111111000000000000000000000000 4
b110100000111100010101100011010100111111000000000000000000000000 =
b11111 N
b11111100110101010101100011110001101000 3
b11111100110101010101100011110001101000 O
1!
#320000
0!
#325000
b1110100 Q
b1110100 "
b1110100 1
b1110100 K
#330000
b111010001101000001111000101011000110101001111110000000000000000 4
b111010001101000001111000101011000110101001111110000000000000000 =
b1111110011010101010110001111000110100001110100 3
b1111110011010101010110001111000110100001110100 O
b111111 N
1!
#340000
0!
#345000
b110010 Q
b110010 "
b110010 1
b110010 K
#350000
b11001001110100011010000011110001010110001101010011111100000000 4
b11001001110100011010000011110001010110001101010011111100000000 =
b1111111 N
b111111001101010101011000111100011010000111010000110010 3
b111111001101010101011000111100011010000111010000110010 O
1!
#360000
0!
#365000
b1101011 Q
b1101011 "
b1101011 1
b1101011 K
#370000
b110101100110010011101000110100000111100010101100011010100111111 4
b110101100110010011101000110100000111100010101100011010100111111 =
b11111100110101010101100011110001101000011101000011001001101011 3
b11111100110101010101100011110001101000011101000011001001101011 O
b11111111 N
1!
#380000
0!
#385000
b1101100 Q
b1101100 "
b1101100 1
b1101100 K
#390000
b111111000000000000000000000000000000000000000000000000000000000110110001101011001100100111010001101000001111000101011000110101 4
b111111000000000000000000000000000000000000000000000000000000000110110001101011001100100111010001101000001111000101011000110101 =
b111111111 N
b1111110011010101010110001111000110100001110100001100100110101101101100 3
b1111110011010101010110001111000110100001110100001100100110101101101100 O
1!
#400000
0!
#405000
b110001 Q
b110001 "
b110001 1
b110001 K
#410000
b110101001111110000000000000000000000000000000000000000000000000011000101101100011010110011001001110100011010000011110001010110 4
b110101001111110000000000000000000000000000000000000000000000000011000101101100011010110011001001110100011010000011110001010110 =
b111111001101010101011000111100011010000111010000110010011010110110110000110001 3
b111111001101010101011000111100011010000111010000110010011010110110110000110001 O
b1111111111 N
1!
#420000
0!
#425000
b110101 Q
b110101 "
b110101 1
b110101 K
#430000
b1010110001101010011111100000000000000000000000000000000000000000011010100110001011011000110101100110010011101000110100000111100 4
b1010110001101010011111100000000000000000000000000000000000000000011010100110001011011000110101100110010011101000110100000111100 =
b11111111111 N
b11111100110101010101100011110001101000011101000011001001101011011011000011000100110101 3
b11111100110101010101100011110001101000011101000011001001101011011011000011000100110101 O
1!
#440000
0!
#445000
b1111000 Q
b1111000 "
b1111000 1
b1111000 K
#450000
b111100010101100011010100111111000000000000000000000000000000000111100000110101001100010110110001101011001100100111010001101000 4
b111100010101100011010100111111000000000000000000000000000000000111100000110101001100010110110001101011001100100111010001101000 =
b1111110011010101010110001111000110100001110100001100100110101101101100001100010011010101111000 3
b1111110011010101010110001111000110100001110100001100100110101101101100001100010011010101111000 O
b111111111111 N
1!
#460000
0!
#465000
b1110101 Q
b1110101 "
b1110101 1
b1110101 K
#470000
b1101000001111000101011000110101001111110000000000000000000000000111010101111000001101010011000101101100011010110011001001110100 4
b1101000001111000101011000110101001111110000000000000000000000000111010101111000001101010011000101101100011010110011001001110100 =
b1111111111111 N
b111111001101010101011000111100011010000111010000110010011010110110110000110001001101010111100001110101 3
b111111001101010101011000111100011010000111010000110010011010110110110000110001001101010111100001110101 O
1!
#480000
0!
#485000
b110101 Q
b110101 "
b110101 1
b110101 K
#490000
b1110100011010000011110001010110001101010011111100000000000000000011010101110101011110000011010100110001011011000110101100110010 4
b1110100011010000011110001010110001101010011111100000000000000000011010101110101011110000011010100110001011011000110101100110010 =
b11111100110101010101100011110001101000011101000011001001101011011011000011000100110101011110000111010100110101 3
b11111100110101010101100011110001101000011101000011001001101011011011000011000100110101011110000111010100110101 O
b11111111111111 N
1!
#500000
0!
#505000
b1011111 Q
b1011111 "
b1011111 1
b1011111 K
#510000
b110010011101000110100000111100010101100011010100111111000000000101111100110101011101010111100000110101001100010110110001101011 4
b110010011101000110100000111100010101100011010100111111000000000101111100110101011101010111100000110101001100010110110001101011 =
b111111111111111 N
b1111110011010101010110001111000110100001110100001100100110101101101100001100010011010101111000011101010011010101011111 3
b1111110011010101010110001111000110100001110100001100100110101101101100001100010011010101111000011101010011010101011111 O
1!
#520000
0!
#525000
b1111001 Q
b1111001 "
b1111001 1
b1111001 K
#530000
b1101011001100100111010001101000001111000101011000110101001111110111100101011111001101010111010101111000001101010011000101101100 4
b1101011001100100111010001101000001111000101011000110101001111110111100101011111001101010111010101111000001101010011000101101100 =
b111111001101010101011000111100011010000111010000110010011010110110110000110001001101010111100001110101001101010101111101111001 3
b111111001101010101011000111100011010000111010000110010011010110110110000110001001101010111100001110101001101010101111101111001 O
b1111111111111111 N
1!
#540000
0!
#545000
b1010001 Q
b1010001 "
b1010001 1
b1010001 K
#550000
b1111110000000000000000000000000000000000000000000000000000000001101100011010110011001001110100011010000011110001010110001101010101000101111001010111110011010101110101011110000011010100110001 4
b1111110000000000000000000000000000000000000000000000000000000001101100011010110011001001110100011010000011110001010110001101010101000101111001010111110011010101110101011110000011010100110001 =
b11111111111111111 N
b11111100110101010101100011110001101000011101000011001001101011011011000011000100110101011110000111010100110101010111110111100101010001 3
b11111100110101010101100011110001101000011101000011001001101011011011000011000100110101011110000111010100110101010111110111100101010001 O
1!
#560000
0!
#565000
b1110100 Q
b1110100 "
b1110100 1
b1110100 K
#570000
b1101010011111100000000000000000000000000000000000000000000000000110001011011000110101100110010011101000110100000111100010101100111010001010001011110010101111100110101011101010111100000110101 4
b1101010011111100000000000000000000000000000000000000000000000000110001011011000110101100110010011101000110100000111100010101100111010001010001011110010101111100110101011101010111100000110101 =
b1111110011010101010110001111000110100001110100001100100110101101101100001100010011010101111000011101010011010101011111011110010101000101110100 3
b1111110011010101010110001111000110100001110100001100100110101101101100001100010011010101111000011101010011010101011111011110010101000101110100 O
b111111111111111111 N
1!
#580000
0!
#585000
b1011111 Q
b1011111 "
b1011111 1
b1011111 K
#590000
b10101100011010100111111000000000000000000000000000000000000000000110101001100010110110001101011001100100111010001101000001111000101111101110100010100010111100101011111001101010111010101111000 4
b10101100011010100111111000000000000000000000000000000000000000000110101001100010110110001101011001100100111010001101000001111000101111101110100010100010111100101011111001101010111010101111000 =
b1111111111111111111 N
b111111001101010101011000111100011010000111010000110010011010110110110000110001001101010111100001110101001101010101111101111001010100010111010001011111 3
b111111001101010101011000111100011010000111010000110010011010110110110000110001001101010111100001110101001101010101111101111001010100010111010001011111 O
1!
#600000
0!
#605000
b111110 Q
b111110 "
b111110 1
b111110 K
#610000
b1111000101011000110101001111110000000000000000000000000000000001111000001101010011000101101100011010110011001001110100011010000011111001011111011101000101000101111001010111110011010101110101 4
b1111000101011000110101001111110000000000000000000000000000000001111000001101010011000101101100011010110011001001110100011010000011111001011111011101000101000101111001010111110011010101110101 =
b11111100110101010101100011110001101000011101000011001001101011011011000011000100110101011110000111010100110101010111110111100101010001011101000101111100111110 3
b11111100110101010101100011110001101000011101000011001001101011011011000011000100110101011110000111010100110101010111110111100101010001011101000101111100111110 O
b11111111111111111111 N
1!
#620000
0!
#625000
b1101100 Q
b1101100 "
b1101100 1
b1101100 K
#630000
b11010000011110001010110001101010011111100000000000000000000000001110101011110000011010100110001011011000110101100110010011101000110110000111110010111110111010001010001011110010101111100110101 4
b11010000011110001010110001101010011111100000000000000000000000001110101011110000011010100110001011011000110101100110010011101000110110000111110010111110111010001010001011110010101111100110101 =
b111111111111111111111 N
b1111110011010101010110001111000110100001110100001100100110101101101100001100010011010101111000011101010011010101011111011110010101000101110100010111110011111001101100 3
b1111110011010101010110001111000110100001110100001100100110101101101100001100010011010101111000011101010011010101011111011110010101000101110100010111110011111001101100 O
1!
#640000
0!
#645000
b1001110 Q
b1001110 "
b1001110 1
b1001110 K
#650000
b11101000110100000111100010101100011010100111111000000000000000000110101011101010111100000110101001100010110110001101011001100100100111001101100001111100101111101110100010100010111100101011111 4
b11101000110100000111100010101100011010100111111000000000000000000110101011101010111100000110101001100010110110001101011001100100100111001101100001111100101111101110100010100010111100101011111 =
b111111001101010101011000111100011010000111010000110010011010110110110000110001001101010111100001110101001101010101111101111001010100010111010001011111001111100110110001001110 3
b111111001101010101011000111100011010000111010000110010011010110110110000110001001101010111100001110101001101010101111101111001010100010111010001011111001111100110110001001110 O
b1111111111111111111111 N
1!
#660000
0!
#665000
b1101011 Q
b1101011 "
b1101011 1
b1101011 K
#670000
b1100100111010001101000001111000101011000110101001111110000000001011111001101010111010101111000001101010011000101101100011010110110101101001110011011000011111001011111011101000101000101111001 4
b1100100111010001101000001111000101011000110101001111110000000001011111001101010111010101111000001101010011000101101100011010110110101101001110011011000011111001011111011101000101000101111001 =
b11111111111111111111111 N
b11111100110101010101100011110001101000011101000011001001101011011011000011000100110101011110000111010100110101010111110111100101010001011101000101111100111110011011000100111001101011 3
b11111100110101010101100011110001101000011101000011001001101011011011000011000100110101011110000111010100110101010111110111100101010001011101000101111100111110011011000100111001101011 O
1!
#680000
0!
#685000
b110000 Q
b110000 "
b110000 1
b110000 K
#690000
b11010110011001001110100011010000011110001010110001101010011111101111001010111110011010101110101011110000011010100110001011011000011000001101011010011100110110000111110010111110111010001010001 4
b11010110011001001110100011010000011110001010110001101010011111101111001010111110011010101110101011110000011010100110001011011000011000001101011010011100110110000111110010111110111010001010001 =
b1111110011010101010110001111000110100001110100001100100110101101101100001100010011010101111000011101010011010101011111011110010101000101110100010111110011111001101100010011100110101100110000 3
b1111110011010101010110001111000110100001110100001100100110101101101100001100010011010101111000011101010011010101011111011110010101000101110100010111110011111001101100010011100110101100110000 O
b111111111111111111111111 N
1!
#700000
0!
#705000
b1011101 Q
b1011101 "
b1011101 1
b1011101 K
#710000
b11111100000000000000000000000000000000000000000000000000000000011011000110101100110010011101000110100000111100010101100011010101010001011110010101111100110101011101010111100000110101001100010101110100110000011010110100111001101100001111100101111101110100 4
b11111100000000000000000000000000000000000000000000000000000000011011000110101100110010011101000110100000111100010101100011010101010001011110010101111100110101011101010111100000110101001100010101110100110000011010110100111001101100001111100101111101110100 =
b1111111111111111111111111 N
b111111001101010101011000111100011010000111010000110010011010110110110000110001001101010111100001110101001101010101111101111001010100010111010001011111001111100110110001001110011010110011000001011101 3
b111111001101010101011000111100011010000111010000110010011010110110110000110001001101010111100001110101001101010101111101111001010100010111010001011111001111100110110001001110011010110011000001011101 O
1!
#720000
0!
#725000
b111110 Q
b111110 "
b111110 1
b111110 K
#730000
b11010100111111000000000000000000000000000000000000000000000000001100010110110001101011001100100111010001101000001111000101011001110100010100010111100101011111001101010111010101111000001101010011111001011101001100000110101101001110011011000011111001011111 4
b11010100111111000000000000000000000000000000000000000000000000001100010110110001101011001100100111010001101000001111000101011001110100010100010111100101011111001101010111010101111000001101010011111001011101001100000110101101001110011011000011111001011111 =
b11111100110101010101100011110001101000011101000011001001101011011011000011000100110101011110000111010100110101010111110111100101010001011101000101111100111110011011000100111001101011001100000101110100111110 3
b11111100110101010101100011110001101000011101000011001001101011011011000011000100110101011110000111010100110101010111110111100101010001011101000101111100111110011011000100111001101011001100000101110100111110 O
b11111111111111111111111111 N
1!
#740000
0!
#745000
b1110110 Q
b1110110 "
b1110110 1
b1110110 K
#750000
b101011000110101001111110000000000000000000000000000000000000000001101010011000101101100011010110011001001110100011010000011110001011111011101000101000101111001010111110011010101110101011110000111011000111110010111010011000001101011010011100110110000111110 4
b101011000110101001111110000000000000000000000000000000000000000001101010011000101101100011010110011001001110100011010000011110001011111011101000101000101111001010111110011010101110101011110000111011000111110010111010011000001101011010011100110110000111110 =
b111111111111111111111111111 N
b1111110011010101010110001111000110100001110100001100100110101101101100001100010011010101111000011101010011010101011111011110010101000101110100010111110011111001101100010011100110101100110000010111010011111001110110 3
b1111110011010101010110001111000110100001110100001100100110101101101100001100010011010101111000011101010011010101011111011110010101000101110100010111110011111001101100010011100110101100110000010111010011111001110110 O
1!
#760000
0!
#765000
b1100011 Q
b1100011 "
b1100011 1
b1100011 K
#770000
b11110001010110001101010011111100000000000000000000000000000000011110000011010100110001011011000110101100110010011101000110100000111110010111110111010001010001011110010101111100110101011101010110001101110110001111100101110100110000011010110100111001101100 4
b11110001010110001101010011111100000000000000000000000000000000011110000011010100110001011011000110101100110010011101000110100000111110010111110111010001010001011110010101111100110101011101010110001101110110001111100101110100110000011010110100111001101100 =
b111111001101010101011000111100011010000111010000110010011010110110110000110001001101010111100001110101001101010101111101111001010100010111010001011111001111100110110001001110011010110011000001011101001111100111011001100011 3
b111111001101010101011000111100011010000111010000110010011010110110110000110001001101010111100001110101001101010101111101111001010100010111010001011111001111100110110001001110011010110011000001011101001111100111011001100011 O
b1111111111111111111111111111 N
1!
#780000
0!
#785000
b1001010 Q
b1001010 "
b1001010 1
b1001010 K
#790000
b110100000111100010101100011010100111111000000000000000000000000011101010111100000110101001100010110110001101011001100100111010001101100001111100101111101110100010100010111100101011111001101010100101001100011011101100011111001011101001100000110101101001110 4
b110100000111100010101100011010100111111000000000000000000000000011101010111100000110101001100010110110001101011001100100111010001101100001111100101111101110100010100010111100101011111001101010100101001100011011101100011111001011101001100000110101101001110 =
b11111111111111111111111111111 N
b11111100110101010101100011110001101000011101000011001001101011011011000011000100110101011110000111010100110101010111110111100101010001011101000101111100111110011011000100111001101011001100000101110100111110011101100110001101001010 3
b11111100110101010101100011110001101000011101000011001001101011011011000011000100110101011110000111010100110101010111110111100101010001011101000101111100111110011011000100111001101011001100000101110100111110011101100110001101001010 O
1!
#800000
0!
#805000
b1100000 Q
b1100000 "
b1100000 1
b1100000 K
#810000
b111010001101000001111000101011000110101001111110000000000000000001101010111010101111000001101010011000101101100011010110011001001001110011011000011111001011111011101000101000101111001010111110110000001001010011000110111011000111110010111010011000001101011 4
b111010001101000001111000101011000110101001111110000000000000000001101010111010101111000001101010011000101101100011010110011001001001110011011000011111001011111011101000101000101111001010111110110000001001010011000110111011000111110010111010011000001101011 =
b1111110011010101010110001111000110100001110100001100100110101101101100001100010011010101111000011101010011010101011111011110010101000101110100010111110011111001101100010011100110101100110000010111010011111001110110011000110100101001100000 3
b1111110011010101010110001111000110100001110100001100100110101101101100001100010011010101111000011101010011010101011111011110010101000101110100010111110011111001101100010011100110101100110000010111010011111001110110011000110100101001100000 O
b111111111111111111111111111111 N
1!
#820000
0!
#825000
b111010 Q
b111010 "
b111010 1
b111010 K
#830000
b11001001110100011010000011110001010110001101010011111100000000010111110011010101110101011110000011010100110001011011000110101101101011010011100110110000111110010111110111010001010001011110010011101001100000010010100110001101110110001111100101110100110000 4
b11001001110100011010000011110001010110001101010011111100000000010111110011010101110101011110000011010100110001011011000110101101101011010011100110110000111110010111110111010001010001011110010011101001100000010010100110001101110110001111100101110100110000 =
b1111111111111111111111111111111 N
b111111001101010101011000111100011010000111010000110010011010110110110000110001001101010111100001110101001101010101111101111001010100010111010001011111001111100110110001001110011010110011000001011101001111100111011001100011010010100110000000111010 3
b111111001101010101011000111100011010000111010000110010011010110110110000110001001101010111100001110101001101010101111101111001010100010111010001011111001111100110110001001110011010110011000001011101001111100111011001100011010010100110000000111010 O
1!
#840000
0!
#845000
b111101 Q
b111101 "
b111101 1
b111101 K
#850000
b110101100110010011101000110100000111100010101100011010100111111011110010101111100110101011101010111100000110101001100010110110000110000011010110100111001101100001111100101111101110100010100010011110100111010011000000100101001100011011101100011111001011101 4
b110101100110010011101000110100000111100010101100011010100111111011110010101111100110101011101010111100000110101001100010110110000110000011010110100111001101100001111100101111101110100010100010011110100111010011000000100101001100011011101100011111001011101 =
b11111100110101010101100011110001101000011101000011001001101011011011000011000100110101011110000111010100110101010111110111100101010001011101000101111100111110011011000100111001101011001100000101110100111110011101100110001101001010011000000011101000111101 3
b11111100110101010101100011110001101000011101000011001001101011011011000011000100110101011110000111010100110101010111110111100101010001011101000101111100111110011011000100111001101011001100000101110100111110011101100110001101001010011000000011101000111101 O
b11111111111111111111111111111111 N
1!
#860000
0!
#865000
b1010001 Q
b1010001 "
b1010001 1
b1010001 K
#870000
b111111000000000000000000000000000000000000000000000000000000000110110001101011001100100111010001101000001111000101011000110101010100010111100101011111001101010111010101111000001101010011000101011101001100000110101101001110011011000011111001011111011101000101000100111101001110100110000001001010011000110111011000111110 4
b111111000000000000000000000000000000000000000000000000000000000110110001101011001100100111010001101000001111000101011000110101010100010111100101011111001101010111010101111000001101010011000101011101001100000110101101001110011011000011111001011111011101000101000100111101001110100110000001001010011000110111011000111110 =
b111111111111111111111111111111111 N
b1111110011010101010110001111000110100001110100001100100110101101101100001100010011010101111000011101010011010101011111011110010101000101110100010111110011111001101100010011100110101100110000010111010011111001110110011000110100101001100000001110100011110101010001 3
b1111110011010101010110001111000110100001110100001100100110101101101100001100010011010101111000011101010011010101011111011110010101000101110100010111110011111001101100010011100110101100110000010111010011111001110110011000110100101001100000001110100011110101010001 O
1!
#880000
0!
#885000
b111001 Q
b111001 "
b111001 1
b111001 K
#890000
b110101001111110000000000000000000000000000000000000000000000000011000101101100011010110011001001110100011010000011110001010110011101000101000101111001010111110011010101110101011110000011010100111110010111010011000001101011010011100110110000111110010111110011100101010001001111010011101001100000010010100110001101110110 4
b110101001111110000000000000000000000000000000000000000000000000011000101101100011010110011001001110100011010000011110001010110011101000101000101111001010111110011010101110101011110000011010100111110010111010011000001101011010011100110110000111110010111110011100101010001001111010011101001100000010010100110001101110110 =
b111111001101010101011000111100011010000111010000110010011010110110110000110001001101010111100001110101001101010101111101111001010100010111010001011111001111100110110001001110011010110011000001011101001111100111011001100011010010100110000000111010001111010101000100111001 3
b111111001101010101011000111100011010000111010000110010011010110110110000110001001101010111100001110101001101010101111101111001010100010111010001011111001111100110110001001110011010110011000001011101001111100111011001100011010010100110000000111010001111010101000100111001 O
b1111111111111111111111111111111111 N
1!
#900000
0!
#905000
b1101110 Q
b1101110 "
b1101110 1
b1101110 K
#910000
b1010110001101010011111100000000000000000000000000000000000000000011010100110001011011000110101100110010011101000110100000111100010111110111010001010001011110010101111100110101011101010111100001110110001111100101110100110000011010110100111001101100001111100110111000111001010100010011110100111010011000000100101001100011 4
b1010110001101010011111100000000000000000000000000000000000000000011010100110001011011000110101100110010011101000110100000111100010111110111010001010001011110010101111100110101011101010111100001110110001111100101110100110000011010110100111001101100001111100110111000111001010100010011110100111010011000000100101001100011 =
b11111111111111111111111111111111111 N
b11111100110101010101100011110001101000011101000011001001101011011011000011000100110101011110000111010100110101010111110111100101010001011101000101111100111110011011000100111001101011001100000101110100111110011101100110001101001010011000000011101000111101010100010011100101101110 3
b11111100110101010101100011110001101000011101000011001001101011011011000011000100110101011110000111010100110101010111110111100101010001011101000101111100111110011011000100111001101011001100000101110100111110011101100110001101001010011000000011101000111101010100010011100101101110 O
1!
#920000
0!
#925000
b1010010 Q
b1010010 "
b1010010 1
b1010010 K
